INDEX VERSION 1.131+C:\Users\user\Desktop\Week12Asignment\.metadata\.plugins\org.eclipse.jdt.core
2764638444.index
1430928888.index
3049288561.index
898436335.index
3424339551.index
4136653105.index
1134953638.index
2981167704.index
3797296197.index
2563455167.index
2339379798.index
2904660306.index
1858915246.index
1625455577.index
3704438252.index
930741813.index
1303738936.index
1972857142.index
4262040503.index
733463137.index
3957048501.index
1089627560.index
320330515.index
2023249904.index
1183080061.index
3140403101.index
261410167.index
4079743945.index
2329929801.index
527886227.index
1079357537.index
554475042.index
2739560664.index
1065579752.index
2055369413.index
3084798427.index
2139449386.index
3966183083.index
1152838529.index
2972969054.index
2446937070.index
2775347278.index
303553140.index
3447408673.index
2296693939.index
4227804445.index
3844068526.index
135270233.index
3948141257.index
2048588491.index
1979536753.index
1295507386.index
187849270.index
2283614784.index
2266979654.index
3042661426.index
4278648162.index
2841171356.index
621140576.index
1931693303.index
1188901764.index
3465752656.index
3571898812.index
3032914787.index
3328303085.index
1470007330.index
1899953381.index
1953794106.index
1724401535.index
681126861.index
2549932163.index
1348696315.index
2832015255.index
2697445688.index
971562244.index
4018029717.index
1523896168.index
1588664585.index
1523152529.index
3081096955.index
2525931645.index
2170033430.index
2156517096.index
474316726.index
610186490.index
810493631.index
2331796426.index
1025571167.index
4227538411.index
1878067507.index
1896636495.index
2007050498.index
2803015528.index
1259982398.index
2542691013.index
835880094.index
3543833068.index
3356089580.index
2169937175.index
522591650.index
2864965847.index
3319726154.index
2513378313.index
165318325.index
3806711014.index
3295556702.index
1015036904.index
3146843806.index
1811746732.index
3445647450.index
3547198433.index
4259253224.index
2220456953.index
1270697194.index
1992457474.index
561792109.index
3684254619.index
3286090628.index
4066993417.index
2728216195.index
2060941608.index
3494784712.index
2598865732.index
3068277278.index
3703880268.index
168132352.index
881134232.index
1865797976.index
3089015309.index
3214500077.index
1422823006.index
1621994272.index
815575221.index
4271024054.index
1785383591.index
418774223.index
2631168101.index
2748828424.index
2932973721.index
4147950505.index
3570902896.index
1158960687.index
1856677699.index
4263776666.index
3937746917.index
3864202031.index
3141246620.index
541930096.index
689805170.index
671172702.index
1083478194.index
2782098400.index
3697103423.index
646915623.index
2448957473.index
3807663518.index
4142498141.index
4205594750.index
2605678410.index
2919484477.index
3933199757.index
756392054.index
779774868.index
2377610318.index
2502617812.index
1989527947.index
3105199540.index
730504571.index
772243840.index
3240411859.index
1716101197.index
3373208680.index
631526926.index
3551806884.index
2871473688.index
471618045.index
3514523272.index
2183136573.index
432429650.index
3870290808.index
609853117.index
1922692515.index
2753092056.index
3591698071.index
2436212877.index
1282555158.index
3378550846.index
1013780008.index
597848088.index
3411204715.index
3098142389.index
1009094873.index
3721989359.index
3492531453.index
2634755400.index
2771102488.index
2570925492.index
1127471934.index
1449735043.index
884747193.index
378179845.index
113335740.index
1029487662.index
1896260031.index
927517625.index
3306655824.index
1856960737.index
172286161.index
2274455337.index
335211976.index
3441222218.index
